…
solved_city_glm
```

    ## # A tibble: 47 × 9
    ##    city_state      term  estimate std.error statistic  p.value    OR OR_CI_upper
    ##    <chr>           <chr>    <dbl>     <dbl>     <dbl>    <dbl> <dbl>       <dbl>
    ##  1 Albuquerque, NM sexM…  5.70e-1     0.385  1.48     1.39e- 1 1.77        3.76 
    ##  2 Atlanta, GA     sexM…  7.71e-5     0.194  0.000397 1.00e+ 0 1.00        1.46 
    ##  3 Baltimore, MD   sexM… -8.54e-1     0.138 -6.18     6.26e-10 0.426       0.558
    ##  4 Baton Rouge, LA sexM… -9.64e-1     0.306 -3.15     1.65e- 3 0.381       0.695
    ##  5 Birmingham, AL  sexM… -1.39e-1     0.212 -0.657    5.11e- 1 0.870       1.32 
    ##  6 Boston, MA      sexM… -3.95e-1     0.326 -1.21     2.26e- 1 0.674       1.28 
    ##  7 Buffalo, NY     sexM… -6.53e-1     0.299 -2.18     2.90e- 2 0.521       0.935
    ##  8 Charlotte, NC   sexM… -1.23e-1     0.236 -0.524    6.00e- 1 0.884       1.40 
    ##  9 Chicago, IL     sexM… -8.91e-1     0.102 -8.77     1.86e-18 0.410       0.501
    ## 10 Cincinnati, OH  sexM… -9.17e-1     0.269 -3.41     6.49e- 4 0.400       0.677
    ## # ℹ 37 more rows
    ## # ℹ 1 more variable: OR_CI_lower <dbl>
…
